<?xml version="1.0" encoding="UTF-8" standalone="no"?>
<!-- Created with Inkscape (http://www.inkscape.org/) -->

<svg
   xmlns:dc="http://purl.org/dc/elements/1.1/"
   xmlns:cc="http://creativecommons.org/ns#"
   xmlns:rdf="http://www.w3.org/1999/02/22-rdf-syntax-ns#"
   xmlns:svg="http://www.w3.org/2000/svg"
   xmlns="http://www.w3.org/2000/svg"
   xmlns:sodipodi="http://sodipodi.sourceforge.net/DTD/sodipodi-0.dtd"
   xmlns:inkscape="http://www.inkscape.org/namespaces/inkscape"
   width="30mm"
   height="20mm"
   viewBox="0 0 113.38583 75.590552"
   id="svg2"
   version="1.1"
   inkscape:version="0.92.2 2405546, 2018-03-11"
   sodipodi:docname="sox.svg"
   inkscape:export-filename="/home/qubodup/x22.png"
   inkscape:export-xdpi="90"
   inkscape:export-ydpi="90"
   style="shape-rendering:crispEdges">
  <defs
     id="defs4">
    <linearGradient
       id="linearGradient3880">
      <stop
         offset="0"
         style="stop-color:#57b7ec"
         id="stop3882" />
      <stop
         offset="1"
         style="stop-color:#066b9d"
         id="stop3884" />
    </linearGradient>
  </defs>
  <sodipodi:namedview
     id="base"
     pagecolor="#ffffff"
     bordercolor="#666666"
     borderopacity="1.0"
     inkscape:pageopacity="0.0"
     inkscape:pageshadow="2"
     inkscape:zoom="4.0000001"
     inkscape:cx="64.264349"
     inkscape:cy="81.895913"
     inkscape:document-units="px"
     inkscape:current-layer="layer1"
     showgrid="false"
     units="mm"
     inkscape:window-width="1680"
     inkscape:window-height="991"
     inkscape:window-x="1366"
     inkscape:window-y="0"
     inkscape:window-maximized="1"
     inkscape:snap-bbox="false"
     inkscape:object-nodes="true"
     inkscape:snap-smooth-nodes="true"
     inkscape:snap-object-midpoints="true"
     fit-margin-top="0"
     fit-margin-left="0"
     fit-margin-right="0"
     fit-margin-bottom="0" />
  <metadata
     id="metadata7">
    <rdf:RDF>
      <cc:Work
         rdf:about="">
        <dc:format>image/svg+xml</dc:format>
        <dc:type
           rdf:resource="http://purl.org/dc/dcmitype/StillImage" />
        <dc:title></dc:title>
      </cc:Work>
    </rdf:RDF>
  </metadata>
  <g
     inkscape:label="Layer 1"
     inkscape:groupmode="layer"
     id="layer1"
     transform="translate(-55,-663.66595)">
    <rect
       style="opacity:1;fill:#b3b3b3;fill-opacity:1;fill-rule:nonzero;stroke:none;stroke-width:3.89231753;stroke-linecap:round;stroke-linejoin:round;stroke-miterlimit:4;stroke-dasharray:none;stroke-opacity:1;paint-order:fill markers stroke"
       id="rect842"
       width="113.38583"
       height="75.590553"
       x="55"
       y="663.66595" />
    <g
       id="g840"
       transform="translate(4.8484836,1.1250267)">
      <g
         id="g4151"
         transform="matrix(0.57359128,0,0,0.57359128,80.940761,666.6879)">
        <rect
           y="12.663981"
           x="-12.816265"
           height="66.815598"
           width="115.95353"
           id="rect4137"
           style="color:#000000;clip-rule:nonzero;display:inline;overflow:visible;visibility:visible;opacity:1;isolation:auto;mix-blend-mode:normal;color-interpolation:sRGB;color-interpolation-filters:linearRGB;solid-color:#000000;solid-opacity:1;fill:#ffffff;fill-opacity:1;fill-rule:nonzero;stroke:#000000;stroke-width:8;stroke-linecap:butt;stroke-linejoin:miter;stroke-miterlimit:4;stroke-dasharray:none;stroke-dashoffset:0;stroke-opacity:1;color-rendering:auto;image-rendering:auto;shape-rendering:auto;text-rendering:auto;enable-background:accumulate" />
        <rect
           style="color:#000000;clip-rule:nonzero;display:inline;overflow:visible;visibility:visible;opacity:1;isolation:auto;mix-blend-mode:normal;color-interpolation:sRGB;color-interpolation-filters:linearRGB;solid-color:#000000;solid-opacity:1;fill:#000000;fill-opacity:1;fill-rule:nonzero;stroke:none;stroke-width:6.90457582;stroke-linecap:butt;stroke-linejoin:miter;stroke-miterlimit:4;stroke-dasharray:none;stroke-dashoffset:0;stroke-opacity:1;color-rendering:auto;image-rendering:auto;shape-rendering:auto;text-rendering:auto;enable-background:accumulate"
           id="rect4139"
           width="17.896412"
           height="22.148317"
           x="36.212296"
           y="81.607796" />
        <path
           sodipodi:nodetypes="cc"
           inkscape:connector-curvature="0"
           id="path4141"
           d="M 11.474059,104.66102 H 78.84694"
           style="color:#000000;clip-rule:nonzero;display:inline;overflow:visible;visibility:visible;opacity:1;isolation:auto;mix-blend-mode:normal;color-interpolation:sRGB;color-interpolation-filters:linearRGB;solid-color:#000000;solid-opacity:1;fill:none;fill-opacity:1;fill-rule:nonzero;stroke:#000000;stroke-width:8;stroke-linecap:butt;stroke-linejoin:miter;stroke-miterlimit:4;stroke-dasharray:none;stroke-dashoffset:0;stroke-opacity:1;color-rendering:auto;image-rendering:auto;shape-rendering:auto;text-rendering:auto;enable-background:accumulate" />
      </g>
      <g
         style="fill:#000000"
         transform="matrix(0.07373365,0,0,0.07373365,88.282633,655.33594)"
         id="g819">
        <path
           id="path4241"
           d="m 363.85547,318.10547 -17.97656,17.58203 c 0,0 16.52752,15.94264 33.54101,50.1875 17.0135,34.24487 34.04492,86.33391 34.04492,157.11719 0,70.78408 -17.06532,121.54454 -34.04492,154.59179 C 362.44113,730.63529 346.13086,745.5 346.13086,745.5 l 18.37695,16.39453 c 0,0 25.53075,-23.20254 43.41016,-58.00586 17.88345,-34.70163 35.56445,-87.96437 35.56445,-160.5957 0,-73.00015 -17.7147,-127.24969 -35.55859,-163.16992 -17.84472,-35.91701 -44.0625,-61.71485 -44.0625,-61.71485 z m -52.71094,50.07226 -0.004,0.20508 -19.48046,16.78711 c 0,0 12.92971,12.15877 26.22851,38.08008 13.29878,25.92052 26.73242,65.32349 26.73242,119.03516 0,53.71168 -13.46915,92.01625 -26.73242,117.01757 -13.26331,25.00132 -25.97656,36.0625 -25.97656,36.0625 l 18.125,17.03907 c 0,0 21.89304,-19.7706 36.0957,-46.54492 14.20264,-26.77354 28.2461,-67.57237 28.2461,-123.57032 0,-56.00118 -14.07896,-97.72991 -28.2461,-125.33789 -14.16715,-27.61443 -34.98828,-48.77344 -34.98828,-48.77344 z m -99.39062,16.84375 c -2.36303,-0.19454 -5.70772,1.16692 -10.40625,4.38282 -18.79515,12.864 -87.07422,87.34765 -87.07422,87.34765 -0.59554,0 -1.06454,0.21213 -1.64258,0.27539 H 60 v 130.88477 h 54.27734 c 0,0 67.06648,74.75904 87.07422,87.62305 20.00722,12.86347 15.88086,-7.12385 15.88086,-15.88086 V 405.01172 c 0,-6.56856 1.61235,-19.4036 -5.47656,-19.98828 z m 39.89453,30.81446 -20.26953,18.96094 c 0,0 47.66406,33.54316 47.66406,106.67968 0,73.1333 -47.41211,104.41016 -47.41211,104.41016 l 19.76367,21.18555 c 0,0 57.40625,-46.41246 57.40625,-125.58789 0,-79.18107 -57.1543,-125.63672 -57.1543,-125.63672 z"
           style="fill:#000000;fill-opacity:1;stroke:#ffffff;stroke-width:10;stroke-linecap:round;stroke-linejoin:round;stroke-miterlimit:4;stroke-dasharray:none;stroke-opacity:1"
           inkscape:connector-curvature="0"
           sodipodi:nodetypes="ccssccccscccccccsscccscccccccccsssccccccscccc"
           transform="translate(0,-27.637839)" />
        <path
           style="fill:#000000;fill-opacity:1;stroke:none;stroke-width:5.27213335"
           d="m 363.85547,318.10547 -17.97656,17.58203 c 0,0 16.52752,15.94264 33.54101,50.1875 17.0135,34.24487 34.04492,86.33391 34.04492,157.11719 0,70.78408 -17.06532,121.54454 -34.04492,154.59179 C 362.44113,730.63529 346.13086,745.5 346.13086,745.5 l 18.37695,16.39453 c 0,0 25.53075,-23.20254 43.41016,-58.00586 17.88345,-34.70163 35.56445,-87.96437 35.56445,-160.5957 0,-73.00015 -17.7147,-127.24969 -35.55859,-163.16992 -17.84472,-35.91701 -44.0625,-61.71485 -44.0625,-61.71485 z m -52.71094,50.07226 -0.004,0.20508 -19.48046,16.78711 c 0,0 12.92971,12.15877 26.22851,38.08008 13.29878,25.92052 26.73242,65.32349 26.73242,119.03516 0,53.71168 -13.46915,92.01625 -26.73242,117.01757 -13.26331,25.00132 -25.97656,36.0625 -25.97656,36.0625 l 18.125,17.03907 c 0,0 21.89304,-19.7706 36.0957,-46.54492 14.20264,-26.77354 28.2461,-67.57237 28.2461,-123.57032 0,-56.00118 -14.07896,-97.72991 -28.2461,-125.33789 -14.16715,-27.61443 -34.98828,-48.77344 -34.98828,-48.77344 z m -99.39062,16.84375 c -2.36303,-0.19454 -5.70772,1.16692 -10.40625,4.38282 -18.79515,12.864 -87.07422,87.34765 -87.07422,87.34765 -0.59554,0 -1.06454,0.21213 -1.64258,0.27539 H 60 v 130.88477 h 54.27734 c 0,0 67.06648,74.75904 87.07422,87.62305 20.00722,12.86347 15.88086,-7.12385 15.88086,-15.88086 V 405.01172 c 0,-6.56856 1.61235,-19.4036 -5.47656,-19.98828 z m 39.89453,30.81446 -20.26953,18.96094 c 0,0 47.66406,33.54316 47.66406,106.67968 0,73.1333 -47.41211,104.41016 -47.41211,104.41016 l 19.76367,21.18555 c 0,0 57.40625,-46.41246 57.40625,-125.58789 0,-79.18107 -57.1543,-125.63672 -57.1543,-125.63672 z"
           id="path2842"
           inkscape:connector-curvature="0"
           sodipodi:nodetypes="ccssccccscccccccsscccscccccccccsssccccccscccc"
           transform="translate(0,-27.637839)" />
      </g>
    </g>
  </g>
</svg>
